Vec Object: 1 MPI processes
  type: seq
0.4
Vec Object: 1 MPI processes
  type: seq
0.178593
1.00002
Vec Object: 1 MPI processes
  type: seq
0

 sensitivity wrt parameter pm: -1.000000 
iter =   0, Function value: -0.4,  Residual: 1 
Vec Object: 1 MPI processes
  type: seq
1.1
Vec Object: 1 MPI processes
  type: seq
0.513862
0.999881
Vec Object: 1 MPI processes
  type: seq
1.36345

 sensitivity wrt parameter pm: 83.680260 
Vec Object: 1 MPI processes
  type: seq
0.771962
Vec Object: 1 MPI processes
  type: seq
0.400617
0.999584
Vec Object: 1 MPI processes
  type: seq
0

 sensitivity wrt parameter pm: -1.000000 
Vec Object: 1 MPI processes
  type: seq
1.04615
Vec Object: 1 MPI processes
  type: seq
0.493539
1.00054
Vec Object: 1 MPI processes
  type: seq
0

 sensitivity wrt parameter pm: -1.000000 
Vec Object: 1 MPI processes
  type: seq
1.1
Vec Object: 1 MPI processes
  type: seq
0.513862
0.999881
Vec Object: 1 MPI processes
  type: seq
1.36345

 sensitivity wrt parameter pm: 83.680260 
Vec Object: 1 MPI processes
  type: seq
1.07335
Vec Object: 1 MPI processes
  type: seq
0.500784
1.00024
Vec Object: 1 MPI processes
  type: seq
0.093245

 sensitivity wrt parameter pm: 15.344860 
Vec Object: 1 MPI processes
  type: seq
1.05489
Vec Object: 1 MPI processes
  type: seq
0.495323
1.00046
Vec Object: 1 MPI processes
  type: seq
0

 sensitivity wrt parameter pm: -1.000000 
Vec Object: 1 MPI processes
  type: seq
1.06049
Vec Object: 1 MPI processes
  type: seq
0.496718
1.0004
Vec Object: 1 MPI processes
  type: seq
0.000187221

 sensitivity wrt parameter pm: -0.568130 
iter =   1, Function value: -1.06031,  Residual: 0.56813 
Vec Object: 1 MPI processes
  type: seq
1.1
Vec Object: 1 MPI processes
  type: seq
0.513862
0.999881
Vec Object: 1 MPI processes
  type: seq
1.36345

 sensitivity wrt parameter pm: 83.680260 
Vec Object: 1 MPI processes
  type: seq
1.1
Vec Object: 1 MPI processes
  type: seq
0.513862
0.999881
Vec Object: 1 MPI processes
  type: seq
1.36345

 sensitivity wrt parameter pm: 83.680260 
Vec Object: 1 MPI processes
  type: seq
1.1
Vec Object: 1 MPI processes
  type: seq
0.513862
0.999881
Vec Object: 1 MPI processes
  type: seq
1.36345

 sensitivity wrt parameter pm: 83.680260 
Vec Object: 1 MPI processes
  type: seq
1.07208
Vec Object: 1 MPI processes
  type: seq
0.500322
1.00026
Vec Object: 1 MPI processes
  type: seq
0.0736108

 sensitivity wrt parameter pm: 13.366996 
Vec Object: 1 MPI processes
  type: seq
1.06118
Vec Object: 1 MPI processes
  type: seq
0.496905
1.00039
Vec Object: 1 MPI processes
  type: seq
0.000607534

 sensitivity wrt parameter pm: -0.216865 
iter =   2, Function value: -1.06057,  Residual: 0.216865 
Vec Object: 1 MPI processes
  type: seq
1.06161
Vec Object: 1 MPI processes
  type: seq
0.497021
1.00038
Vec Object: 1 MPI processes
  type: seq
0.000988417

 sensitivity wrt parameter pm: 0.000190 
iter =   3, Function value: -1.06062,  Residual: 0.000190298 
Vec Object: 1 MPI processes
  type: seq
1.06161
Vec Object: 1 MPI processes
  type: seq
0.497021
1.00038
Vec Object: 1 MPI processes
  type: seq
0.000988043

 sensitivity wrt parameter pm: -0.000000 
iter =   4, Function value: -1.06062,  Residual: 6.36971e-08 
Vec Object: 1 MPI processes
  type: seq
1.06161
Vec Object: 1 MPI processes
  type: seq
0.497021
1.00038
Vec Object: 1 MPI processes
  type: seq
0.000988043

 sensitivity wrt parameter pm: 0.000000 
iter =   5, Function value: -1.06062,  Residual: 3.06588e-13 
Tao Object: 1 MPI processes
  type: blmvm
      Gradient steps: 0
  TaoLineSearch Object:   1 MPI processes
    type: more-thuente
  Active Set subset type: subvec
  convergence tolerances: fatol=1e-15,   frtol=1e-15
  convergence tolerances: gatol=1e-15,   steptol=0,   gttol=1e-15
  Residual in Function/Gradient:=3.06588e-13
  Objective value=-1.06062
  total number of iterations=5,                          (max: 2000)
  total number of function/gradient evaluations=16,      (max: 4000)
  Solution converged:   estimated f(x)-f(X*) <= fatol
Vec Object: 1 MPI processes
  type: seq
1.06161
